// SPDX-FileCopyrightText: Amolith <amolith@secluded.site>
//
// SPDX-License-Identifier: CC0-1.0

module git.sr.ht/~amolith/willow

go 1.22

toolchain go1.22.3

require (
	github.com/BurntSushi/toml v1.3.2
	github.com/go-git/go-git/v5 v5.11.0
	github.com/microcosm-cc/bluemonday v1.0.26
	github.com/mmcdole/gofeed v1.2.1
	github.com/spf13/pflag v1.0.5
	github.com/unascribed/FlexVer/go/flexver v1.0.0
	golang.org/x/crypto v0.19.0
	golang.org/x/term v0.17.0
	modernc.org/sqlite v1.27.0
)

require (
	dario.cat/mergo v1.0.0 // indirect
	github.com/Microsoft/go-winio v0.6.1 // indirect
	github.com/ProtonMail/go-crypto v1.0.0 // indirect
	github.com/PuerkitoBio/goquery v1.8.1 // indirect
	github.com/andybalholm/cascadia v1.3.2 // indirect
	github.com/aymerick/douceur v0.2.0 // indirect
	github.com/cloudflare/circl v1.3.7 // indirect
	github.com/cyphar/filepath-securejoin v0.2.4 // indirect
	github.com/dustin/go-humanize v1.0.1 // indirect
	github.com/emirpasic/gods v1.18.1 // indirect
	github.com/go-git/gcfg v1.5.1-0.20230307220236-3a3c6141e376 // indirect
	github.com/go-git/go-billy/v5 v5.5.0 // indirect
	github.com/golang/groupcache v0.0.0-20210331224755-41bb18bfe9da // indirect
	github.com/google/uuid v1.4.0 // indirect
	github.com/gorilla/css v1.0.1 // indirect
	github.com/jbenet/go-context v0.0.0-20150711004518-d14ea06fba99 // indirect
	github.com/json-iterator/go v1.1.12 // indirect
	github.com/kballard/go-shellquote v0.0.0-20180428030007-95032a82bc51 // indirect
	github.com/kevinburke/ssh_config v1.2.0 // indirect
	github.com/mattn/go-isatty v0.0.20 // indirect
	github.com/mmcdole/goxpp v1.1.0 // indirect
	github.com/modern-go/concurrent v0.0.0-20180306012644-bacd9c7ef1dd // indirect
	github.com/modern-go/reflect2 v1.0.2 // indirect
	github.com/pjbgf/sha1cd v0.3.0 // indirect
	github.com/remyoudompheng/bigfft v0.0.0-20230129092748-24d4a6f8daec // indirect
	github.com/sergi/go-diff v1.3.1 // indirect
	github.com/skeema/knownhosts v1.2.1 // indirect
	github.com/xanzy/ssh-agent v0.3.3 // indirect
	golang.org/x/mod v0.15.0 // indirect
	golang.org/x/net v0.21.0 // indirect
	golang.org/x/sys v0.17.0 // indirect
	golang.org/x/text v0.14.0 // indirect
	golang.org/x/tools v0.18.0 // indirect
	gopkg.in/warnings.v0 v0.1.2 // indirect
	lukechampine.com/uint128 v1.3.0 // indirect
	modernc.org/cc/v3 v3.41.0 // indirect
	modernc.org/ccgo/v3 v3.16.15 // indirect
	modernc.org/libc v1.34.11 // indirect
	modernc.org/mathutil v1.6.0 // indirect
	modernc.org/memory v1.7.2 // indirect
	modernc.org/opt v0.1.3 // indirect
	modernc.org/strutil v1.2.0 // indirect
	modernc.org/token v1.1.0 // indirect
)
